<?xml version="1.0" encoding="utf-8"?>
<!-- Generator: Adobe Illustrator 19.1.0, SVG Export Plug-In . SVG Version: 6.00 Build 0)  -->
<svg version="1.1" id="Layer_1" xmlns="http://www.w3.org/2000/svg" xmlns:xlink="http://www.w3.org/1999/xlink" x="0px" y="0px"
	 viewBox="0 0 13.5 13.2" style="enable-background:new 0 0 13.5 13.2;" xml:space="preserve">
<style type="text/css">
	.st0{fill-rule:evenodd;clip-rule:evenodd;fill:#999999;}
</style>
<path class="st0" d="M7.8,9.6h4c0.9,0,1.6-0.7,1.6-1.6V1.6c0-0.9-0.7-1.6-1.6-1.6H1.5C0.7,0,0,0.7,0,1.5v6.6c0,0.8,0.7,1.5,1.5,1.5
	h1.1c0,0,0,0,0,0v2.7c0,0.9,0.7,1.2,1.4,0.6L7.8,9.6C7.9,9.6,7.8,9.6,7.8,9.6z"/>
</svg>
